<svg width="50" height="50" viewBox="0 0 50 50" fill="none" xmlns="http://www.w3.org/2000/svg">
<circle cx="25" cy="25" r="25" fill="black"/>
<path d="M22.3984 34.293H34.8398V39H16.5391V10.5625H22.3984V34.293Z" fill="white"/>
<mask id="mask0" style="mask-type:alpha" maskUnits="userSpaceOnUse" x="16" y="10" width="19" height="29">
<path d="M22.3984 34.293H34.8398V39H16.5391V10.5625H22.3984V34.293Z" fill="white"/>
</mask>
<g mask="url(#mask0)">
<path d="M19.1807 18.1643C20.2914 13.8547 16.6908 10.9258 14.7517 10L17.5464 41.8393C20.7449 42.2878 27.3352 43.0315 28.1087 42.4184C29.0756 41.6519 28.7909 39.1779 28.4223 36.6993C28.1274 34.7164 27.7345 34.9316 27.5748 35.2871C26.49 35.1365 24.1331 34.8798 23.3834 35.0573C22.4464 35.279 17.7923 23.5513 19.1807 18.1643Z" fill="url(#paint0_linear)"/>
</g>
<defs>
<linearGradient id="paint0_linear" x1="22.569" y1="10.4286" x2="20.8172" y2="42.3806" gradientUnits="userSpaceOnUse">
<stop stop-color="#2C5472"/>
<stop offset="1" stop-color="#431111" stop-opacity="0"/>
</linearGradient>
</defs>
</svg>
